…
```
## Creating BIL support files...
## Exporting raster as floating values (bytes=8)
##    0%   3%   6%   9%  12%  15%  18%  21%  24%  27%  30%  33%  36%  39%  42%  45%  48%  51%  54%  57%  60%  63%  66%  69%  72%  75%  78%  81%  84%  87%  90%  93%  96%  99% 100%
```

```r
init_depths
```

```
## # A tibble: 211,293 x 4
##         x       y depth_cm soil_column  
##     <dbl>   <dbl>    <int> <list>       
##  1 725825 4286059     1836 <dbl [1,836]>
##  2 725835 4286059     1807 <dbl [1,807]>
##  3 725845 4286059     1780 <dbl [1,780]>
##  4 725855 4286059     1757 <dbl [1,757]>
##  5 725865 4286059     1737 <dbl [1,737]>
##  6 725875 4286059     1722 <dbl [1,722]>
##  7 725885 4286059     1711 <dbl [1,711]>
##  8 725895 4286059     1704 <dbl [1,704]>
##  9 725905 4286059     1702 <dbl [1,702]>
## 10 725915 4286059     1704 <dbl [1,704]>
## # ... with 211,283 more rows
```

Now we've set up our basic model domain, an irregular three dimensional grid of cubic centimeter sized cells, represented as a nested data frame. We can apply the nuclide function to each column in turn, just as in the one dimensional case above.

```r
init_depths %>% 
  mutate(soil_column = map2(soil_column, depth_cm, ~ .x + P_z(.x, 1:.y - .5)))
```

```
## # A tibble: 211,293 x 4
##         x       y depth_cm soil_column  
##     <dbl>   <dbl>    <int> <list>       
##  1 725825 4286059     1836 <dbl [1,836]>
##  2 725835 4286059     1807 <dbl [1,807]>
##  3 725845 4286059     1780 <dbl [1,780]>
##  4 725855 4286059     1757 <dbl [1,757]>
##  5 725865 4286059     1737 <dbl [1,737]>
##  6 725875 4286059     1722 <dbl [1,722]>
##  7 725885 4286059     1711 <dbl [1,711]>
##  8 725895 4286059     1704 <dbl [1,704]>
##  9 725905 4286059     1702 <dbl [1,702]>
## 10 725915 4286059     1704 <dbl [1,704]>
## # ... with 211,283 more rows
```
…
```
## Creating BIL support files...
## Exporting raster as floating values (bytes=8)
##    0%   3%   6%   9%  12%  15%  18%  21%  24%  27%  30%  33%  36%  39%  42%  45%  48%  51%  54%  57%  60%  63%  66%  69%  72%  75%  78%  81%  84%  87%  90%  93%  96%  99% 100%
```

```r
semi_join(init_depths, mask) # extract only the soil columns that are in any of the simulation watershed
```

```
## # A tibble: 144,627 x 4
##         x       y depth_cm soil_column  
##     <dbl>   <dbl>    <int> <list>       
##  1 723545 4285659     1197 <dbl [1,197]>
##  2 723625 4285659      866 <dbl [866]>  
##  3 723635 4285659      821 <dbl [821]>  
##  4 723685 4285659      706 <dbl [706]>  
##  5 723695 4285659      693 <dbl [693]>  
##  6 723705 4285659      682 <dbl [682]>  
##  7 723545 4285649     1189 <dbl [1,189]>
##  8 723555 4285649     1158 <dbl [1,158]>
##  9 723565 4285649     1117 <dbl [1,117]>
## 10 723575 4285649     1072 <dbl [1,072]>
## # ... with 144,617 more rows
```


```r
#sample the erosion and deposition maps at core coordinates, convert to centimeters
# we'll start with the bare ground case, because deposition is high enough we don't have to worry about numerical instability yet
execGRASS('r.what', map = edmaps.bare, coordinates = core.pt, separator = ',', intern = T) %>%
  str_split(',', simplify = T) %>%
  .[,-(1:3)] %>%
  as.numeric %>%
  `*`(100) %>% # meters to cm
  tibble(year = 1:100, elev_change = .)
```

```
## # A tibble: 100 x 2
##     year elev_change
##    <int>       <dbl>
##  1     1        7.24
##  2     2        4.62
##  3     3        4.73
##  4     4        4.99
##  5     5        5.28
##  6     6        5.74
##  7     7        6.26
##  8     8        6.00
##  9     9        5.68
## 10    10        5.66
## # ... with 90 more rows
```
…
