…
```r
semi_join(init_depths, mask) # extract only the soil columns that are in any of the simulation watershed
```

```
## Joining, by = c("x", "y")
```

```
## # A tibble: 146,284 x 5
##    soildepth_init      x       y depth_cm soil_column  
##             <dbl>  <dbl>   <dbl>    <int> <list>       
##  1            0   723535 4285669        0 <dbl [0]>    
##  2            0   723545 4285669        0 <dbl [0]>    
##  3            0   723555 4285669        0 <dbl [0]>    
##  4            0   723615 4285669        0 <dbl [0]>    
##  5            0   723625 4285669        0 <dbl [0]>    
##  6            0   723635 4285669        0 <dbl [0]>    
##  7            0   723645 4285669        0 <dbl [0]>    
##  8            0   723535 4285659        0 <dbl [0]>    
##  9           12.0 723545 4285659     1197 <dbl [1,197]>
## 10            0   723555 4285659        0 <dbl [0]>    
## # ... with 146,274 more rows
```


```r
#sample the erosion and deposition maps at core coordinates, convert to centimeters
# we'll start with the bare ground case, because deposition is high enough we don't have to worry about numerical instability yet
execGRASS('r.what', map = edmaps.bare, coordinates = coor, separator = ',', intern = T) %>%
  str_split(',', simplify = T) %>%
  .[,-(1:3)] %>%
  as.numeric %>%
  `*`(100) %>% #meters to cm
  tibble(year = 1:100, elev_change = .)
```

```
## # A tibble: 100 x 2
##     year elev_change
##    <int>       <dbl>
##  1     1        7.24
##  2     2        4.62
##  3     3        4.73
##  4     4        4.99
##  5     5        5.28
##  6     6        5.74
##  7     7        6.26
##  8     8        6.00
##  9     9        5.68
## 10    10        5.66
## # ... with 90 more rows
```
…
